{
  "project_info": {
    "project_number": "121780491445",
    "project_id": "foodg-52062",
    "storage_bucket": "foodg-52062.appspot.com"
  },
  "client": [
    {
      "client_info": {
        "mobilesdk_app_id": "1:121780491445:android:cbb0a15c8c74cae861dafc",
        "android_client_info": {
          "package_name": "com.smartersvision.foodgdriverapp"
        }
      },
      "oauth_client": [
        {
          "client_id": "121780491445-nccbgn26o14vb63lc6nkhi4cm7mj8eqe.apps.googleusercontent.com",
          "client_type": 3
        }
      ],
      "api_key": [
        {
          "current_key": "AIzaSyCYGbg4tKWhjYYjYy6nO35UVYaSlszV8Q4"
        }
      ],
      "services": {
        "appinvite_service": {
          "other_platform_oauth_client": [
            {
              "client_id": "121780491445-nccbgn26o14vb63lc6nkhi4cm7mj8eqe.apps.googleusercontent.com",
              "client_type": 3
            }
          ]
        }
      }
    }
  ],
  "configuration_version": "1"
}